…
    vroom(files, delim = ",") # Imports both files as a single dataset

    ## New names:
    ## * `` -> ...1

    ## Rows: 8,354
    ## Columns: 10
    ## Delimiter: ","
    ## chr [1]: Type
    ## dbl [9]: ...1, LongestShell, Diameter, Height, WholeWeight, ShuckedWeight, VisceraWeight...
    ##
    ## Use `spec()` to retrieve the guessed column specification
    ## Pass a specification to the `col_types` argument to quiet this message

    ## # A tibble: 8,354 x 10
    ##     ...1 Type  LongestShell Diameter Height WholeWeight ShuckedWeight
    ##    <dbl> <chr>        <dbl>    <dbl>  <dbl>       <dbl>         <dbl>
    ##  1     1 M            0.455    0.365  0.095       0.514        0.224
    ##  2     2 M            0.35     0.265  0.09        0.226        0.0995
    ##  3     3 F            0.53     0.42   0.135       0.677        0.256
    ##  4     4 M            0.44     0.365  0.125       0.516        0.216
    ##  5     5 I            0.33     0.255  0.08        0.205        0.0895
    ##  6     6 I            0.425    0.3    0.095       0.352        0.141
    ##  7     7 F            0.53     0.415  0.15        0.778        0.237
    ##  8     8 F            0.545    0.425  0.125       0.768        0.294
    ##  9     9 M            0.475    0.37   0.125       0.509        0.216
    ## 10    10 F            0.55     0.44   0.15        0.894        0.314
    ## # … with 8,344 more rows, and 3 more variables: VisceraWeight <dbl>,
    ## #   ShellWeight <dbl>, Rings <dbl>
…
### Renaming columns

Changing column names is less intuitive than with data.table.

    vroom("abalone.csv", col_select = list(Sexe = Type, Dia = Diameter, everything())) # "everything()" selects all other variables (info @ ?everything()).

    ## New names:
    ## * `` -> ...1

    ## # A tibble: 4,177 x 10
    ##    Sexe    Dia  ...1 LongestShell Height WholeWeight ShuckedWeight VisceraWeight
    ##    <chr> <dbl> <dbl>        <dbl>  <dbl>       <dbl>         <dbl>         <dbl>
    ##  1 M     0.365     1        0.455  0.095       0.514        0.224         0.101
    ##  2 M     0.265     2        0.35   0.09        0.226        0.0995        0.0485
    ##  3 F     0.42      3        0.53   0.135       0.677        0.256         0.142
    ##  4 M     0.365     4        0.44   0.125       0.516        0.216         0.114
    ##  5 I     0.255     5        0.33   0.08        0.205        0.0895        0.0395
    ##  6 I     0.3       6        0.425  0.095       0.352        0.141         0.0775
    ##  7 F     0.415     7        0.53   0.15        0.778        0.237         0.142
    ##  8 F     0.425     8        0.545  0.125       0.768        0.294         0.150
    ##  9 M     0.37      9        0.475  0.125       0.509        0.216         0.112
    ## 10 F     0.44     10        0.55   0.15        0.894        0.314         0.151
    ## # … with 4,167 more rows, and 2 more variables: ShellWeight <dbl>, Rings <dbl>
…
