…
Our dataset
============

As in the previous workshop, we'll use the mammal sleep dataset from `ggplot2` to run our examples : 

```r
library(ggplot2)
data(msleep)
msleep
```

```
# A tibble: 83 x 11
   name   genus vore  order conservation sleep_total sleep_rem sleep_cycle
   <chr>  <chr> <chr> <chr> <chr>              <dbl>     <dbl>       <dbl>
 1 Cheet… Acin… carni Carn… lc                  12.1      NA        NA    
 2 Owl m… Aotus omni  Prim… <NA>                17         1.8      NA    
 3 Mount… Aplo… herbi Rode… nt                  14.4       2.4      NA    
 4 Great… Blar… omni  Sori… lc                  14.9       2.3       0.133
 5 Cow    Bos   herbi Arti… domesticated         4         0.7       0.667
 6 Three… Brad… herbi Pilo… <NA>                14.4       2.2       0.767
 7 North… Call… carni Carn… vu                   8.7       1.4       0.383
 8 Vespe… Calo… <NA>  Rode… <NA>                 7        NA        NA    
 9 Dog    Canis carni Carn… domesticated        10.1       2.9       0.333
10 Roe d… Capr… herbi Arti… lc                   3        NA        NA    
# ... with 73 more rows, and 3 more variables: awake <dbl>, brainwt <dbl>,
#   bodywt <dbl>
```
…
    filter, lag
```

```
The following objects are masked from 'package:base':

    intersect, setdiff, setequal, union
```

```r
filter(msleep, bodywt > 0.2)
```

```
# A tibble: 61 x 11
   name   genus vore  order conservation sleep_total sleep_rem sleep_cycle
   <chr>  <chr> <chr> <chr> <chr>              <dbl>     <dbl>       <dbl>
 1 Cheet… Acin… carni Carn… lc                  12.1      NA        NA    
 2 Owl m… Aotus omni  Prim… <NA>                17         1.8      NA    
 3 Mount… Aplo… herbi Rode… nt                  14.4       2.4      NA    
 4 Cow    Bos   herbi Arti… domesticated         4         0.7       0.667
 5 Three… Brad… herbi Pilo… <NA>                14.4       2.2       0.767
 6 North… Call… carni Carn… vu                   8.7       1.4       0.383
 7 Dog    Canis carni Carn… domesticated        10.1       2.9       0.333
 8 Roe d… Capr… herbi Arti… lc                   3        NA        NA    
 9 Goat   Capri herbi Arti… lc                   5.3       0.6      NA    
10 Guine… Cavis herbi Rode… domesticated         9.4       0.8       0.217
# ... with 51 more rows, and 3 more variables: awake <dbl>, brainwt <dbl>,
#   bodywt <dbl>
```
…
```
[1] NA
```

The underlying logic here being that, if I do not know Paul's age, and I do not now Jack's age, the answer to the question : Do Paul and Jack have the same age isn't `TRUE`, it is *I don't know* (`NA`)

To check for missing values, one must use the `ia.na` function :

```r
filter(msleep, is.na(conservation))
```

```
# A tibble: 29 x 11
   name   genus vore  order conservation sleep_total sleep_rem sleep_cycle
   <chr>  <chr> <chr> <chr> <chr>              <dbl>     <dbl>       <dbl>
 1 Owl m… Aotus omni  Prim… <NA>                17         1.8      NA    
 2 Three… Brad… herbi Pilo… <NA>                14.4       2.2       0.767
 3 Vespe… Calo… <NA>  Rode… <NA>                 7        NA        NA    
 4 Afric… Cric… omni  Rode… <NA>                 8.3       2        NA    
 5 Weste… Euta… herbi Rode… <NA>                14.9      NA        NA    
 6 Galago Gala… omni  Prim… <NA>                 9.8       1.1       0.55
 7 Human  Homo  omni  Prim… <NA>                 8         1.9       1.5  
 8 Macaq… Maca… omni  Prim… <NA>                10.1       1.2       0.75
 9 "Vole… Micr… herbi Rode… <NA>                12.8      NA        NA    
10 Littl… Myot… inse… Chir… <NA>                19.9       2         0.2  
# ... with 19 more rows, and 3 more variables: awake <dbl>, brainwt <dbl>,
#   bodywt <dbl>
```
…
```
Error in filter_impl(.data, quo): Evaluation error: operations are possible only for numeric, logical or complex types.
```

But R is a bit dumber than that. You need to speficify every condition in details, e.g. :

```r
filter(msleep, vore == "omni" | vore == "carni")
```

```
# A tibble: 39 x 11
   name   genus vore  order conservation sleep_total sleep_rem sleep_cycle
   <chr>  <chr> <chr> <chr> <chr>              <dbl>     <dbl>       <dbl>
 1 Cheet… Acin… carni Carn… lc                  12.1      NA        NA    
 2 Owl m… Aotus omni  Prim… <NA>                17         1.8      NA    
 3 Great… Blar… omni  Sori… lc                  14.9       2.3       0.133
 4 North… Call… carni Carn… vu                   8.7       1.4       0.383
 5 Dog    Canis carni Carn… domesticated        10.1       2.9       0.333
 6 Grivet Cerc… omni  Prim… lc                  10         0.7      NA    
 7 Star-… Cond… omni  Sori… lc                  10.3       2.2      NA    
 8 Afric… Cric… omni  Rode… <NA>                 8.3       2        NA    
 9 Lesse… Cryp… omni  Sori… lc                   9.1       1.4       0.15
10 Long-… Dasy… carni Cing… lc                  17.4       3.1       0.383
# ... with 29 more rows, and 3 more variables: awake <dbl>, brainwt <dbl>,
#   bodywt <dbl>
```

Such a redundant syntax can easily be shortened with the `%in%` operator.

```r
filter(msleep, vore %in% c("omni", "carni"))
```

```
# A tibble: 39 x 11
   name   genus vore  order conservation sleep_total sleep_rem sleep_cycle
   <chr>  <chr> <chr> <chr> <chr>              <dbl>     <dbl>       <dbl>
 1 Cheet… Acin… carni Carn… lc                  12.1      NA        NA    
 2 Owl m… Aotus omni  Prim… <NA>                17         1.8      NA    
 3 Great… Blar… omni  Sori… lc                  14.9       2.3       0.133
 4 North… Call… carni Carn… vu                   8.7       1.4       0.383
 5 Dog    Canis carni Carn… domesticated        10.1       2.9       0.333
 6 Grivet Cerc… omni  Prim… lc                  10         0.7      NA    
 7 Star-… Cond… omni  Sori… lc                  10.3       2.2      NA    
 8 Afric… Cric… omni  Rode… <NA>                 8.3       2        NA    
 9 Lesse… Cryp… omni  Sori… lc                   9.1       1.4       0.15
10 Long-… Dasy… carni Cing… lc                  17.4       3.1       0.383
# ... with 29 more rows, and 3 more variables: awake <dbl>, brainwt <dbl>,
#   bodywt <dbl>
```

The `%in%` can also be used to list you prepare before your statement...

```r
to_keep <- c("omni", "carni", "herbi")
filter(msleep, vore %in% to_keep)
```

```
# A tibble: 71 x 11
   name   genus vore  order conservation sleep_total sleep_rem sleep_cycle
   <chr>  <chr> <chr> <chr> <chr>              <dbl>     <dbl>       <dbl>
 1 Cheet… Acin… carni Carn… lc                  12.1      NA        NA    
 2 Owl m… Aotus omni  Prim… <NA>                17         1.8      NA    
 3 Mount… Aplo… herbi Rode… nt                  14.4       2.4      NA    
 4 Great… Blar… omni  Sori… lc                  14.9       2.3       0.133
 5 Cow    Bos   herbi Arti… domesticated         4         0.7       0.667
 6 Three… Brad… herbi Pilo… <NA>                14.4       2.2       0.767
 7 North… Call… carni Carn… vu                   8.7       1.4       0.383
 8 Dog    Canis carni Carn… domesticated        10.1       2.9       0.333
 9 Roe d… Capr… herbi Arti… lc                   3        NA        NA    
10 Goat   Capri herbi Arti… lc                   5.3       0.6      NA    
# ... with 61 more rows, and 3 more variables: awake <dbl>, brainwt <dbl>,
#   bodywt <dbl>
```

## Conditions can also be reversed

The exclamations point(`!`) can be used to inverse the result of a condition. For example, to extract all mammals except for omnivorous ones :

```r
filter(msleep, !(vore == "omni"))
```

```
# A tibble: 56 x 11
   name   genus vore  order conservation sleep_total sleep_rem sleep_cycle
   <chr>  <chr> <chr> <chr> <chr>              <dbl>     <dbl>       <dbl>
 1 Cheet… Acin… carni Carn… lc                  12.1      NA        NA    
 2 Mount… Aplo… herbi Rode… nt                  14.4       2.4      NA    
 3 Cow    Bos   herbi Arti… domesticated         4         0.7       0.667
 4 Three… Brad… herbi Pilo… <NA>                14.4       2.2       0.767
 5 North… Call… carni Carn… vu                   8.7       1.4       0.383
 6 Dog    Canis carni Carn… domesticated        10.1       2.9       0.333
 7 Roe d… Capr… herbi Arti… lc                   3        NA        NA    
 8 Goat   Capri herbi Arti… lc                   5.3       0.6      NA    
 9 Guine… Cavis herbi Rode… domesticated         9.4       0.8       0.217
10 Chinc… Chin… herbi Rode… domesticated        12.5       1.5       0.117
# ... with 46 more rows, and 3 more variables: awake <dbl>, brainwt <dbl>,
#   bodywt <dbl>
```

Sorting
------

By default, sorting in R happens in an ascending way

```r
arrange(msleep, bodywt)
```

```
# A tibble: 83 x 11
   name   genus vore  order conservation sleep_total sleep_rem sleep_cycle
   <chr>  <chr> <chr> <chr> <chr>              <dbl>     <dbl>       <dbl>
 1 Lesse… Cryp… omni  Sori… lc                   9.1       1.4       0.15
 2 Littl… Myot… inse… Chir… <NA>                19.9       2         0.2  
 3 Great… Blar… omni  Sori… lc                  14.9       2.3       0.133
 4 Deer … Pero… <NA>  Rode… <NA>                11.5      NA        NA    
 5 House… Mus   herbi Rode… nt                  12.5       1.4       0.183
 6 Big b… Epte… inse… Chir… lc                  19.7       3.9       0.117
 7 North… Onyc… carni Rode… lc                  14.5      NA        NA    
 8 "Vole… Micr… herbi Rode… <NA>                12.8      NA        NA    
 9 Afric… Rhab… omni  Rode… <NA>                 8.7      NA        NA    
10 Vespe… Calo… <NA>  Rode… <NA>                 7        NA        NA    
# ... with 73 more rows, and 3 more variables: awake <dbl>, brainwt <dbl>,
#   bodywt <dbl>
```

You need to add a special modifier to reverse that order

```r
arrange(msleep, desc(bodywt))
```

```
# A tibble: 83 x 11
   name   genus vore  order conservation sleep_total sleep_rem sleep_cycle
   <chr>  <chr> <chr> <chr> <chr>              <dbl>     <dbl>       <dbl>
 1 Afric… Loxo… herbi Prob… vu                   3.3      NA        NA    
 2 Asian… Elep… herbi Prob… en                   3.9      NA        NA    
 3 Giraf… Gira… herbi Arti… cd                   1.9       0.4      NA    
 4 Pilot… Glob… carni Ceta… cd                   2.7       0.1      NA    
 5 Cow    Bos   herbi Arti… domesticated         4         0.7       0.667
 6 Horse  Equus herbi Peri… domesticated         2.9       0.6       1    
 7 Brazi… Tapi… herbi Peri… vu                   4.4       1         0.9  
 8 Donkey Equus herbi Peri… domesticated         3.1       0.4      NA    
 9 Bottl… Turs… carni Ceta… <NA>                 5.2      NA        NA    
10 Tiger  Pant… carni Carn… en                  15.8      NA        NA    
# ... with 73 more rows, and 3 more variables: awake <dbl>, brainwt <dbl>,
#   bodywt <dbl>
```

Exercise one
-----
Find, in ascending order of body weight, the list of all non-domestic herbivorous animals

Select some columns
---------

```r
select(msleep, vore, brainwt, bodywt)
```

```
# A tibble: 83 x 3
   vore   brainwt  bodywt
   <chr>    <dbl>   <dbl>
 1 carni NA        50    
 2 omni   0.0155    0.48
 3 herbi NA         1.35
 4 omni   0.00029   0.019
 5 herbi  0.423   600    
 6 herbi NA         3.85
 7 carni NA        20.5  
 8 <NA>  NA         0.045
 9 carni  0.07     14    
10 herbi  0.0982   14.8  
# ... with 73 more rows
```

You can also specify a series of columns, as long as they are adjacent in the dataset

```r
select(msleep, sleep_total:awake)
```

```
# A tibble: 83 x 4
   sleep_total sleep_rem sleep_cycle awake
         <dbl>     <dbl>       <dbl> <dbl>
 1        12.1      NA        NA      11.9
 2        17         1.8      NA       7  
 3        14.4       2.4      NA       9.6
 4        14.9       2.3       0.133   9.1
 5         4         0.7       0.667  20  
 6        14.4       2.2       0.767   9.6
 7         8.7       1.4       0.383  15.3
 8         7        NA        NA      17  
 9        10.1       2.9       0.333  13.9
10         3        NA        NA      21  
# ... with 73 more rows
```

Please note that, as before, as long as you don't override the object, the original dataset is not affected by column selection.

Adding columns
--------

Because columns are added (by default) to the rightmost of the dataset, we create ourselves a simplified dataset just to see more easily what we are doing.

```r
weights <- select(msleep,ends_with("wt"))
weights
```

```
# A tibble: 83 x 2
    brainwt  bodywt
      <dbl>   <dbl>
 1 NA        50    
 2  0.0155    0.48
 3 NA         1.35
 4  0.00029   0.019
 5  0.423   600    
 6 NA         3.85
 7 NA        20.5  
 8 NA         0.045
 9  0.07     14    
10  0.0982   14.8  
# ... with 73 more rows
```

To add a column containing brain size in grams instead of kilograms

```r
mutate(weights, cerveau_g = brainwt*1000)
```

```
# A tibble: 83 x 3
    brainwt  bodywt cerveau_g
      <dbl>   <dbl>     <dbl>
 1 NA        50        NA    
 2  0.0155    0.48     15.5  
 3 NA         1.35     NA    
 4  0.00029   0.019     0.290
 5  0.423   600       423    
 6 NA         3.85     NA    
 7 NA        20.5      NA    
 8 NA         0.045    NA    
 9  0.07     14        70    
10  0.0982   14.8      98.2  
# ... with 73 more rows
```

Note that many columns can be used in the same calculation, e.g. to calculate the relative size of the brain :

```r
mutate(weights, rel_brain = brainwt / bodywt)
```

```
# A tibble: 83 x 3
    brainwt  bodywt rel_brain
      <dbl>   <dbl>     <dbl>
 1 NA        50     NA       
 2  0.0155    0.48   0.0323  
 3 NA         1.35  NA       
 4  0.00029   0.019  0.0153  
 5  0.423   600      0.000705
 6 NA         3.85  NA       
 7 NA        20.5   NA       
 8 NA         0.045 NA       
 9  0.07     14      0.005   
10  0.0982   14.8    0.00664
# ... with 73 more rows
```
…
