…
# Manipulation rapide de bases de données avec dplyr et ses alliés
#### Charles Martin
#### Octobre 2018

Notre jeu de données
============

```r
library(ggplot2)
data(msleep)
msleep
```

```
# A tibble: 83 x 11
   name   genus vore  order conservation sleep_total sleep_rem sleep_cycle
   <chr>  <chr> <chr> <chr> <chr>              <dbl>     <dbl>       <dbl>
 1 Cheet… Acin… carni Carn… lc                  12.1      NA        NA    
 2 Owl m… Aotus omni  Prim… <NA>                17         1.8      NA    
 3 Mount… Aplo… herbi Rode… nt                  14.4       2.4      NA    
 4 Great… Blar… omni  Sori… lc                  14.9       2.3       0.133
 5 Cow    Bos   herbi Arti… domesticated         4         0.7       0.667
 6 Three… Brad… herbi Pilo… <NA>                14.4       2.2       0.767
 7 North… Call… carni Carn… vu                   8.7       1.4       0.383
 8 Vespe… Calo… <NA>  Rode… <NA>                 7        NA        NA    
 9 Dog    Canis carni Carn… domesticated        10.1       2.9       0.333
10 Roe d… Capr… herbi Arti… lc                   3        NA        NA    
# ... with 73 more rows, and 3 more variables: awake <dbl>, brainwt <dbl>,
#   bodywt <dbl>
```
…
    filter, lag
```

```
The following objects are masked from 'package:base':

    intersect, setdiff, setequal, union
```

```r
filter(msleep, bodywt > 0.2)
```

```
# A tibble: 61 x 11
   name   genus vore  order conservation sleep_total sleep_rem sleep_cycle
   <chr>  <chr> <chr> <chr> <chr>              <dbl>     <dbl>       <dbl>
 1 Cheet… Acin… carni Carn… lc                  12.1      NA        NA    
 2 Owl m… Aotus omni  Prim… <NA>                17         1.8      NA    
 3 Mount… Aplo… herbi Rode… nt                  14.4       2.4      NA    
 4 Cow    Bos   herbi Arti… domesticated         4         0.7       0.667
 5 Three… Brad… herbi Pilo… <NA>                14.4       2.2       0.767
 6 North… Call… carni Carn… vu                   8.7       1.4       0.383
 7 Dog    Canis carni Carn… domesticated        10.1       2.9       0.333
 8 Roe d… Capr… herbi Arti… lc                   3        NA        NA    
 9 Goat   Capri herbi Arti… lc                   5.3       0.6      NA    
10 Guine… Cavis herbi Rode… domesticated         9.4       0.8       0.217
# ... with 51 more rows, and 3 more variables: awake <dbl>, brainwt <dbl>,
#   bodywt <dbl>
```
…
```
[1] NA
```
La logique de R sous-jacente étant que, si je ne connaîs pas l'âge de Paul et
que je ne connais pas l'âge de Jacques, la réponse à "Est-ce que Paul et
Jacques ont le même âge" est "Je ne sais pas", et non "vrai"

Si on veut tester des valeurs manquantes, il faut utiliser la fonction `is.na`

```r
filter(msleep, is.na(conservation))
```

```
# A tibble: 29 x 11
   name   genus vore  order conservation sleep_total sleep_rem sleep_cycle
   <chr>  <chr> <chr> <chr> <chr>              <dbl>     <dbl>       <dbl>
 1 Owl m… Aotus omni  Prim… <NA>                17         1.8      NA    
 2 Three… Brad… herbi Pilo… <NA>                14.4       2.2       0.767
 3 Vespe… Calo… <NA>  Rode… <NA>                 7        NA        NA    
 4 Afric… Cric… omni  Rode… <NA>                 8.3       2        NA    
 5 Weste… Euta… herbi Rode… <NA>                14.9      NA        NA    
 6 Galago Gala… omni  Prim… <NA>                 9.8       1.1       0.55
 7 Human  Homo  omni  Prim… <NA>                 8         1.9       1.5  
 8 Macaq… Maca… omni  Prim… <NA>                10.1       1.2       0.75
 9 "Vole… Micr… herbi Rode… <NA>                12.8      NA        NA    
10 Littl… Myot… inse… Chir… <NA>                19.9       2         0.2  
# ... with 19 more rows, and 3 more variables: awake <dbl>, brainwt <dbl>,
#   bodywt <dbl>
```
…
```
Error in filter_impl(.data, quo): Evaluation error: operations are possible only for numeric, logical or complex types.
```

Mais il faut en fait spécifier toutes les éventualités, et les séparer par l'opérateur `|`. P. ex. :

```r
filter(msleep, vore == "omni" | vore == "carni")
```

```
# A tibble: 39 x 11
   name   genus vore  order conservation sleep_total sleep_rem sleep_cycle
   <chr>  <chr> <chr> <chr> <chr>              <dbl>     <dbl>       <dbl>
 1 Cheet… Acin… carni Carn… lc                  12.1      NA        NA    
 2 Owl m… Aotus omni  Prim… <NA>                17         1.8      NA    
 3 Great… Blar… omni  Sori… lc                  14.9       2.3       0.133
 4 North… Call… carni Carn… vu                   8.7       1.4       0.383
 5 Dog    Canis carni Carn… domesticated        10.1       2.9       0.333
 6 Grivet Cerc… omni  Prim… lc                  10         0.7      NA    
 7 Star-… Cond… omni  Sori… lc                  10.3       2.2      NA    
 8 Afric… Cric… omni  Rode… <NA>                 8.3       2        NA    
 9 Lesse… Cryp… omni  Sori… lc                   9.1       1.4       0.15
10 Long-… Dasy… carni Cing… lc                  17.4       3.1       0.383
# ... with 29 more rows, and 3 more variables: awake <dbl>, brainwt <dbl>,
#   bodywt <dbl>
```

On peut cependant raccourcir ce genre d'affirmation avec l'opérateur `%in%`

```r
filter(msleep, vore %in% c("omni", "carni"))
```

```
# A tibble: 39 x 11
   name   genus vore  order conservation sleep_total sleep_rem sleep_cycle
   <chr>  <chr> <chr> <chr> <chr>              <dbl>     <dbl>       <dbl>
 1 Cheet… Acin… carni Carn… lc                  12.1      NA        NA    
 2 Owl m… Aotus omni  Prim… <NA>                17         1.8      NA    
 3 Great… Blar… omni  Sori… lc                  14.9       2.3       0.133
 4 North… Call… carni Carn… vu                   8.7       1.4       0.383
 5 Dog    Canis carni Carn… domesticated        10.1       2.9       0.333
 6 Grivet Cerc… omni  Prim… lc                  10         0.7      NA    
 7 Star-… Cond… omni  Sori… lc                  10.3       2.2      NA    
 8 Afric… Cric… omni  Rode… <NA>                 8.3       2        NA    
 9 Lesse… Cryp… omni  Sori… lc                   9.1       1.4       0.15
10 Long-… Dasy… carni Cing… lc                  17.4       3.1       0.383
# ... with 29 more rows, and 3 more variables: awake <dbl>, brainwt <dbl>,
#   bodywt <dbl>
```

Avec l'opérateur %in%, on peut même préparer notre liste de valeurs à l'avance

```r
a_garder <- c("omni", "carni", "herbi")
filter(msleep, vore %in% a_garder)
```

```
# A tibble: 71 x 11
   name   genus vore  order conservation sleep_total sleep_rem sleep_cycle
   <chr>  <chr> <chr> <chr> <chr>              <dbl>     <dbl>       <dbl>
 1 Cheet… Acin… carni Carn… lc                  12.1      NA        NA    
 2 Owl m… Aotus omni  Prim… <NA>                17         1.8      NA    
 3 Mount… Aplo… herbi Rode… nt                  14.4       2.4      NA    
 4 Great… Blar… omni  Sori… lc                  14.9       2.3       0.133
 5 Cow    Bos   herbi Arti… domesticated         4         0.7       0.667
 6 Three… Brad… herbi Pilo… <NA>                14.4       2.2       0.767
 7 North… Call… carni Carn… vu                   8.7       1.4       0.383
 8 Dog    Canis carni Carn… domesticated        10.1       2.9       0.333
 9 Roe d… Capr… herbi Arti… lc                   3        NA        NA    
10 Goat   Capri herbi Arti… lc                   5.3       0.6      NA    
# ... with 61 more rows, and 3 more variables: awake <dbl>, brainwt <dbl>,
#   bodywt <dbl>
```

## On peut aussi inverser des conditions
Avec le point d'exclamation, p. ex. pour avoir tout sauf les omnivores :

```r
filter(msleep, !(vore == "omni"))
```

```
# A tibble: 56 x 11
   name   genus vore  order conservation sleep_total sleep_rem sleep_cycle
   <chr>  <chr> <chr> <chr> <chr>              <dbl>     <dbl>       <dbl>
 1 Cheet… Acin… carni Carn… lc                  12.1      NA        NA    
 2 Mount… Aplo… herbi Rode… nt                  14.4       2.4      NA    
 3 Cow    Bos   herbi Arti… domesticated         4         0.7       0.667
 4 Three… Brad… herbi Pilo… <NA>                14.4       2.2       0.767
 5 North… Call… carni Carn… vu                   8.7       1.4       0.383
 6 Dog    Canis carni Carn… domesticated        10.1       2.9       0.333
 7 Roe d… Capr… herbi Arti… lc                   3        NA        NA    
 8 Goat   Capri herbi Arti… lc                   5.3       0.6      NA    
 9 Guine… Cavis herbi Rode… domesticated         9.4       0.8       0.217
10 Chinc… Chin… herbi Rode… domesticated        12.5       1.5       0.117
# ... with 46 more rows, and 3 more variables: awake <dbl>, brainwt <dbl>,
#   bodywt <dbl>
```

Maintenant que toutes ces particularités sont derrière nous, on peut passer à la seconde opération sur les bases de données, le tri.

Trier
------
Par défaut, le tri se fait en ordre croissant

```r
arrange(msleep, bodywt)
```

```
# A tibble: 83 x 11
   name   genus vore  order conservation sleep_total sleep_rem sleep_cycle
   <chr>  <chr> <chr> <chr> <chr>              <dbl>     <dbl>       <dbl>
 1 Lesse… Cryp… omni  Sori… lc                   9.1       1.4       0.15
 2 Littl… Myot… inse… Chir… <NA>                19.9       2         0.2  
 3 Great… Blar… omni  Sori… lc                  14.9       2.3       0.133
 4 Deer … Pero… <NA>  Rode… <NA>                11.5      NA        NA    
 5 House… Mus   herbi Rode… nt                  12.5       1.4       0.183
 6 Big b… Epte… inse… Chir… lc                  19.7       3.9       0.117
 7 North… Onyc… carni Rode… lc                  14.5      NA        NA    
 8 "Vole… Micr… herbi Rode… <NA>                12.8      NA        NA    
 9 Afric… Rhab… omni  Rode… <NA>                 8.7      NA        NA    
10 Vespe… Calo… <NA>  Rode… <NA>                 7        NA        NA    
# ... with 73 more rows, and 3 more variables: awake <dbl>, brainwt <dbl>,
#   bodywt <dbl>
```

Il faut utiliser une modificateur pour inverser l'ordre

```r
arrange(msleep, desc(bodywt))
```

```
# A tibble: 83 x 11
   name   genus vore  order conservation sleep_total sleep_rem sleep_cycle
   <chr>  <chr> <chr> <chr> <chr>              <dbl>     <dbl>       <dbl>
 1 Afric… Loxo… herbi Prob… vu                   3.3      NA        NA    
 2 Asian… Elep… herbi Prob… en                   3.9      NA        NA    
 3 Giraf… Gira… herbi Arti… cd                   1.9       0.4      NA    
 4 Pilot… Glob… carni Ceta… cd                   2.7       0.1      NA    
 5 Cow    Bos   herbi Arti… domesticated         4         0.7       0.667
 6 Horse  Equus herbi Peri… domesticated         2.9       0.6       1    
 7 Brazi… Tapi… herbi Peri… vu                   4.4       1         0.9  
 8 Donkey Equus herbi Peri… domesticated         3.1       0.4      NA    
 9 Bottl… Turs… carni Ceta… <NA>                 5.2      NA        NA    
10 Tiger  Pant… carni Carn… en                  15.8      NA        NA    
# ... with 73 more rows, and 3 more variables: awake <dbl>, brainwt <dbl>,
#   bodywt <dbl>
```

Premier exercice
-----
Trouver en ordre croissant de poids du corps, la liste de tous les herbivores non domestiqués

Sélectionner certaines colonnes
---------

```r
select(msleep, vore, brainwt, bodywt)
```

```
# A tibble: 83 x 3
   vore   brainwt  bodywt
   <chr>    <dbl>   <dbl>
 1 carni NA        50    
 2 omni   0.0155    0.48
 3 herbi NA         1.35
 4 omni   0.00029   0.019
 5 herbi  0.423   600    
 6 herbi NA         3.85
 7 carni NA        20.5  
 8 <NA>  NA         0.045
 9 carni  0.07     14    
10 herbi  0.0982   14.8  
# ... with 73 more rows
```

Une série de colonnes en séquence

```r
select(msleep, sleep_total:awake)
```

```
# A tibble: 83 x 4
   sleep_total sleep_rem sleep_cycle awake
         <dbl>     <dbl>       <dbl> <dbl>
 1        12.1      NA        NA      11.9
 2        17         1.8      NA       7  
 3        14.4       2.4      NA       9.6
 4        14.9       2.3       0.133   9.1
 5         4         0.7       0.667  20  
 6        14.4       2.2       0.767   9.6
 7         8.7       1.4       0.383  15.3
 8         7        NA        NA      17  
 9        10.1       2.9       0.333  13.9
10         3        NA        NA      21  
# ... with 73 more rows
```
ou tout sauf les colonnes de la séquence

```r
select(msleep, -c(sleep_total:awake))
```

```
# A tibble: 83 x 7
   name              genus    vore  order    conservation  brainwt  bodywt
   <chr>             <chr>    <chr> <chr>    <chr>           <dbl>   <dbl>
 1 Cheetah           Acinonyx carni Carnivo… lc           NA        50    
 2 Owl monkey        Aotus    omni  Primates <NA>          0.0155    0.48
 3 Mountain beaver   Aplodon… herbi Rodentia nt           NA         1.35
 4 Greater short-ta… Blarina  omni  Soricom… lc            0.00029   0.019
 5 Cow               Bos      herbi Artioda… domesticated  0.423   600    
 6 Three-toed sloth  Bradypus herbi Pilosa   <NA>         NA         3.85
 7 Northern fur seal Callorh… carni Carnivo… vu           NA        20.5  
 8 Vesper mouse      Calomys  <NA>  Rodentia <NA>         NA         0.045
 9 Dog               Canis    carni Carnivo… domesticated  0.07     14    
10 Roe deer          Capreol… herbi Artioda… lc            0.0982   14.8  
# ... with 73 more rows
```

On peut aussi renommer certaines colonnes

```r
rename(msleep, nom = name, genre = genus)
```

```
# A tibble: 83 x 11
   nom    genre vore  order conservation sleep_total sleep_rem sleep_cycle
   <chr>  <chr> <chr> <chr> <chr>              <dbl>     <dbl>       <dbl>
 1 Cheet… Acin… carni Carn… lc                  12.1      NA        NA    
 2 Owl m… Aotus omni  Prim… <NA>                17         1.8      NA    
 3 Mount… Aplo… herbi Rode… nt                  14.4       2.4      NA    
 4 Great… Blar… omni  Sori… lc                  14.9       2.3       0.133
 5 Cow    Bos   herbi Arti… domesticated         4         0.7       0.667
 6 Three… Brad… herbi Pilo… <NA>                14.4       2.2       0.767
 7 North… Call… carni Carn… vu                   8.7       1.4       0.383
 8 Vespe… Calo… <NA>  Rode… <NA>                 7        NA        NA    
 9 Dog    Canis carni Carn… domesticated        10.1       2.9       0.333
10 Roe d… Capr… herbi Arti… lc                   3        NA        NA    
# ... with 73 more rows, and 3 more variables: awake <dbl>, brainwt <dbl>,
#   bodywt <dbl>
```

Ajouter des colonnes
--------

Puisque les colonnes sont ajoutées à la fin du jeu de données, nous allons créer un jeu de données simplifié pour bien voir ce que l'on fait

```r
poids <- select(msleep,ends_with("wt"))
poids
```

```
# A tibble: 83 x 2
    brainwt  bodywt
      <dbl>   <dbl>
 1 NA        50    
 2  0.0155    0.48
 3 NA         1.35
 4  0.00029   0.019
 5  0.423   600    
 6 NA         3.85
 7 NA        20.5  
 8 NA         0.045
 9  0.07     14    
10  0.0982   14.8  
# ... with 73 more rows
```

Pour ajouter une colonne du poids du cerveau en grammes


```r
mutate(poids, cerveau_g = brainwt*1000)
```

```
# A tibble: 83 x 3
    brainwt  bodywt cerveau_g
      <dbl>   <dbl>     <dbl>
 1 NA        50        NA    
 2  0.0155    0.48     15.5  
 3 NA         1.35     NA    
 4  0.00029   0.019     0.290
 5  0.423   600       423    
 6 NA         3.85     NA    
 7 NA        20.5      NA    
 8 NA         0.045    NA    
 9  0.07     14        70    
10  0.0982   14.8      98.2  
# ... with 73 more rows
```

On peut aussi utiliser plusieurs colonnes à la fois dans un calcul, p. ex.
pour calculer la taille relative du cerveau :

```r
mutate(poids, rel_brain = brainwt / bodywt)
```

```
# A tibble: 83 x 3
    brainwt  bodywt rel_brain
      <dbl>   <dbl>     <dbl>
 1 NA        50     NA       
 2  0.0155    0.48   0.0323  
 3 NA         1.35  NA       
 4  0.00029   0.019  0.0153  
 5  0.423   600      0.000705
 6 NA         3.85  NA       
 7 NA        20.5   NA       
 8 NA         0.045 NA       
 9  0.07     14      0.005   
10  0.0982   14.8    0.00664
# ... with 73 more rows
```
…
P. ex. pour obtenir l'histogramme de toutes les variables de sommeil dans le jeu
de données `msleep` :

```r
msleep_long <- msleep %>%
  gather(
    key = Variable,
    value = Valeur,
    sleep_total:awake
  )
msleep_long
```

```
# A tibble: 332 x 9
   name    genus vore  order conservation  brainwt  bodywt Variable Valeur
   <chr>   <chr> <chr> <chr> <chr>           <dbl>   <dbl> <chr>     <dbl>
 1 Cheetah Acin… carni Carn… lc           NA        50     sleep_t…   12.1
 2 Owl mo… Aotus omni  Prim… <NA>          0.0155    0.48  sleep_t…   17  
 3 Mounta… Aplo… herbi Rode… nt           NA         1.35  sleep_t…   14.4
 4 Greate… Blar… omni  Sori… lc            0.00029   0.019 sleep_t…   14.9
 5 Cow     Bos   herbi Arti… domesticated  0.423   600     sleep_t…    4  
 6 Three-… Brad… herbi Pilo… <NA>         NA         3.85  sleep_t…   14.4
 7 Northe… Call… carni Carn… vu           NA        20.5   sleep_t…    8.7
 8 Vesper… Calo… <NA>  Rode… <NA>         NA         0.045 sleep_t…    7  
 9 Dog     Canis carni Carn… domesticated  0.07     14     sleep_t…   10.1
10 Roe de… Capr… herbi Arti… lc            0.0982   14.8   sleep_t…    3  
# ... with 322 more rows
```
…
```r
meta <- msleep %>%
  select(name:conservation) %>%
  arrange(name)

sommeil <- msleep %>%
  filter(vore != "carni") %>%
  select(name, sleep_total:awake)

meta
```

```
# A tibble: 83 x 5
   name                      genus        vore    order       conservation
   <chr>                     <chr>        <chr>   <chr>       <chr>       
 1 African elephant          Loxodonta    herbi   Proboscidea vu          
 2 African giant pouched rat Cricetomys   omni    Rodentia    <NA>        
 3 African striped mouse     Rhabdomys    omni    Rodentia    <NA>        
 4 Arctic fox                Vulpes       carni   Carnivora   <NA>        
 5 Arctic ground squirrel    Spermophilus herbi   Rodentia    lc          
 6 Asian elephant            Elephas      herbi   Proboscidea en          
 7 Baboon                    Papio        omni    Primates    <NA>        
 8 Big brown bat             Eptesicus    insecti Chiroptera  lc          
 9 Bottle-nosed dolphin      Tursiops     carni   Cetacea     <NA>        
10 Brazilian tapir           Tapirus      herbi   Perissodac… vu          
# ... with 73 more rows
```

```r
sommeil
```

```
# A tibble: 57 x 5
   name                       sleep_total sleep_rem sleep_cycle awake
   <chr>                            <dbl>     <dbl>       <dbl> <dbl>
 1 Owl monkey                        17         1.8      NA       7  
 2 Mountain beaver                   14.4       2.4      NA       9.6
 3 Greater short-tailed shrew        14.9       2.3       0.133   9.1
 4 Cow                                4         0.7       0.667  20  
 5 Three-toed sloth                  14.4       2.2       0.767   9.6
 6 Roe deer                           3        NA        NA      21  
 7 Goat                               5.3       0.6      NA      18.7
 8 Guinea pig                         9.4       0.8       0.217  14.6
 9 Grivet                            10         0.7      NA      14  
10 Chinchilla                        12.5       1.5       0.117  11.5
# ... with 47 more rows
```
…
